Script started on Tue 27 Oct 2015 11:49:20 PM CDT
[?1034h[0;36m23:49 [1;30m[[1;34mwebstetw5351[1;30m[0;32m[1;30m][1;37m[0;37m$./run -m[Km -m[Kn 1000000
Sent: 3, 5, 7, 9 ...

waiting to recv new sieve
Recvd: 5, 7, 11, 13 ...

Sent: 7, 11, 13, 17 ...

waiting to recv new sieve
Recvd: 11, 13, 17, 19 ...

Sent: 13, 17, 19, 23 ...

waiting to recv new sieve
Recvd: 17, 19, 23, 29 ...

Sent: 19, 23, 29, 31 ...

waiting to recv new sieve
Recvd: 23, 29, 31, 37 ...

Sent: 29, 31, 37, 41 ...

waiting to recv new sieve
Recvd: 31, 37, 41, 43 ...

Sent: 37, 41, 43, 47 ...

waiting to recv new sieve
Recvd: 41, 43, 47, 53 ...

Sent: 43, 47, 53, 59 ...

waiting to recv new sieve
Recvd: 47, 53, 59, 61 ...

Sent: 53, 59, 61, 67 ...

waiting to recv new sieve
Recvd: 59, 61, 67, 71 ...

Sent: 61, 67, 71, 73 ...

waiting to recv new sieve
Recvd: 67, 71, 73, 79 ...

Sent: 71, 73, 79, 83 ...

waiting to recv new sieve
Recvd: 73, 79, 83, 89 ...

Sent: 79, 83, 89, 97 ...

waiting to recv new sieve
Recvd: 83, 89, 97, 101 ...

Sent: 89, 97, 101, 103 ...

waiting to recv new sieve
Recvd: 97, 101, 103, 107 ...

Sent: 101, 103, 107, 109 ...

waiting to recv new sieve
Recvd: 103, 107, 109, 113 ...

Sent: 107, 109, 113, 127 ...

waiting to recv new sieve
Recvd: 109, 113, 127, 131 ...

Sent: 113, 127, 131, 137 ...

waiting to recv new sieve
Recvd: 127, 131, 137, 139 ...

Sent: 131, 137, 139, 149 ...

waiting to recv new sieve
Recvd: 137, 139, 149, 151 ...

Sent: 139, 149, 151, 157 ...

waiting to recv new sieve
Recvd: 149, 151, 157, 163 ...

Sent: 151, 157, 163, 167 ...

waiting to recv new sieve
Recvd: 157, 163, 167, 173 ...

Sent: 163, 167, 173, 179 ...

waiting to recv new sieve
Recvd: 167, 173, 179, 181 ...

Sent: 173, 179, 181, 191 ...

waiting to recv new sieve
Recvd: 179, 181, 191, 193 ...

Sent: 181, 191, 193, 197 ...

waiting to recv new sieve
Recvd: 191, 193, 197, 199 ...

Sent: 193, 197, 199, 211 ...

waiting to recv new sieve
Recvd: 197, 199, 211, 223 ...

Sent: 199, 211, 223, 227 ...

waiting to recv new sieve
Recvd: 211, 223, 227, 229 ...

Sent: 223, 227, 229, 233 ...

waiting to recv new sieve
Recvd: 227, 229, 233, 239 ...

Sent: 229, 233, 239, 241 ...

waiting to recv new sieve
Recvd: 233, 239, 241, 251 ...

Sent: 239, 241, 251, 257 ...

waiting to recv new sieve
Recvd: 241, 251, 257, 263 ...

Sent: 251, 257, 263, 269 ...

waiting to recv new sieve
Recvd: 257, 263, 269, 271 ...

Sent: 263, 269, 271, 277 ...

waiting to recv new sieve
Recvd: 269, 271, 277, 281 ...

Sent: 271, 277, 281, 283 ...

waiting to recv new sieve
Recvd: 277, 281, 283, 293 ...

Sent: 281, 283, 293, 307 ...

waiting to recv new sieve
Recvd: 283, 293, 307, 311 ...

Sent: 293, 307, 311, 313 ...

waiting to recv new sieve
Recvd: 307, 311, 313, 317 ...

Sent: 311, 313, 317, 331 ...

waiting to recv new sieve
Recvd: 313, 317, 331, 337 ...

Sent: 317, 331, 337, 347 ...

waiting to recv new sieve
Recvd: 331, 337, 347, 349 ...

Sent: 337, 347, 349, 353 ...

waiting to recv new sieve
Recvd: 347, 349, 353, 359 ...

Sent: 349, 353, 359, 367 ...

waiting to recv new sieve
Recvd: 353, 359, 367, 373 ...

Sent: 359, 367, 373, 379 ...

waiting to recv new sieve
Recvd: 367, 373, 379, 383 ...

Sent: 373, 379, 383, 389 ...

waiting to recv new sieve
Recvd: 379, 383, 389, 397 ...

Sent: 383, 389, 397, 401 ...

waiting to recv new sieve
Recvd: 389, 397, 401, 409 ...

Sent: 397, 401, 409, 419 ...

waiting to recv new sieve
Recvd: 401, 409, 419, 421 ...

Sent: 409, 419, 421, 431 ...

waiting to recv new sieve
Recvd: 419, 421, 431, 433 ...

Sent: 421, 431, 433, 439 ...

waiting to recv new sieve
Recvd: 431, 433, 439, 443 ...

Sent: 433, 439, 443, 449 ...

waiting to recv new sieve
Recvd: 439, 443, 449, 457 ...

Sent: 443, 449, 457, 461 ...

waiting to recv new sieve
Recvd: 449, 457, 461, 463 ...

Sent: 457, 461, 463, 467 ...

waiting to recv new sieve
Recvd: 461, 463, 467, 479 ...

Sent: 463, 467, 479, 487 ...

waiting to recv new sieve
Recvd: 467, 479, 487, 491 ...

Sent: 479, 487, 491, 499 ...

waiting to recv new sieve
Recvd: 487, 491, 499, 503 ...

Sent: 491, 499, 503, 509 ...

waiting to recv new sieve
Recvd: 499, 503, 509, 521 ...

Sent: 503, 509, 521, 523 ...

waiting to recv new sieve
Recvd: 509, 521, 523, 541 ...

Sent: 521, 523, 541, 547 ...

waiting to recv new sieve
Recvd: 523, 541, 547, 557 ...

Sent: 541, 547, 557, 563 ...

waiting to recv new sieve
Recvd: 547, 557, 563, 569 ...

Sent: 557, 563, 569, 571 ...

waiting to recv new sieve
Recvd: 563, 569, 571, 577 ...

Sent: 569, 571, 577, 587 ...

waiting to recv new sieve
Recvd: 571, 577, 587, 593 ...

Sent: 577, 587, 593, 599 ...

waiting to recv new sieve
Recvd: 587, 593, 599, 601 ...

Sent: 593, 599, 601, 607 ...

waiting to recv new sieve
Recvd: 599, 601, 607, 613 ...

Sent: 601, 607, 613, 617 ...

waiting to recv new sieve
Recvd: 607, 613, 617, 619 ...

Sent: 613, 617, 619, 631 ...

waiting to recv new sieve
Recvd: 617, 619, 631, 641 ...

Sent: 619, 631, 641, 643 ...

waiting to recv new sieve
Recvd: 631, 641, 643, 647 ...

Sent: 641, 643, 647, 653 ...

waiting to recv new sieve
Recvd: 643, 647, 653, 659 ...

Sent: 647, 653, 659, 661 ...

waiting to recv new sieve
Recvd: 653, 659, 661, 673 ...

Sent: 659, 661, 673, 677 ...

waiting to recv new sieve
Recvd: 661, 673, 677, 683 ...

Sent: 673, 677, 683, 691 ...

waiting to recv new sieve
Recvd: 677, 683, 691, 701 ...

Sent: 683, 691, 701, 709 ...

waiting to recv new sieve
Recvd: 691, 701, 709, 719 ...

Sent: 701, 709, 719, 727 ...

waiting to recv new sieve
Recvd: 709, 719, 727, 733 ...

Sent: 719, 727, 733, 739 ...

waiting to recv new sieve
Recvd: 727, 733, 739, 743 ...

Sent: 733, 739, 743, 751 ...

waiting to recv new sieve
Recvd: 739, 743, 751, 757 ...

Sent: 743, 751, 757, 761 ...

waiting to recv new sieve
Recvd: 751, 757, 761, 769 ...

Sent: 757, 761, 769, 773 ...

waiting to recv new sieve
Recvd: 761, 769, 773, 787 ...

Sent: 769, 773, 787, 797 ...

waiting to recv new sieve
Recvd: 773, 787, 797, 809 ...

Sent: 787, 797, 809, 811 ...

waiting to recv new sieve
Recvd: 797, 809, 811, 821 ...

Sent: 809, 811, 821, 823 ...

waiting to recv new sieve
Recvd: 811, 821, 823, 827 ...

Sent: 821, 823, 827, 829 ...

waiting to recv new sieve
Recvd: 823, 827, 829, 839 ...

Sent: 827, 829, 839, 853 ...

waiting to recv new sieve
Recvd: 829, 839, 853, 857 ...

Sent: 839, 853, 857, 859 ...

waiting to recv new sieve
Recvd: 853, 857, 859, 863 ...

Sent: 857, 859, 863, 877 ...

waiting to recv new sieve
Recvd: 859, 863, 877, 881 ...

Sent: 863, 877, 881, 883 ...

waiting to recv new sieve
Recvd: 877, 881, 883, 887 ...

Sent: 881, 883, 887, 907 ...

waiting to recv new sieve
Recvd: 883, 887, 907, 911 ...

Sent: 887, 907, 911, 919 ...

waiting to recv new sieve
Recvd: 907, 911, 919, 929 ...

Sent: 911, 919, 929, 937 ...

waiting to recv new sieve
Recvd: 919, 929, 937, 941 ...

Sent: 929, 937, 941, 947 ...

waiting to recv new sieve
Recvd: 937, 941, 947, 953 ...

Sent: 941, 947, 953, 967 ...

waiting to recv new sieve
Recvd: 947, 953, 967, 971 ...

Sent: 953, 967, 971, 977 ...

waiting to recv new sieve
Recvd: 967, 971, 977, 983 ...

Sent: 971, 977, 983, 991 ...

waiting to recv new sieve
Recvd: 977, 983, 991, 997 ...

Sent: 983, 991, 997, 1009 ...

waiting to recv new sieve
Recvd: 991, 997, 1009, 1013 ...

Sent: 997, 1009, 1013, 1019 ...

waiting to recv new sieve
Recvd: 1009, 1013, 1019, 1021 ...

waiting to recv new sieve
Recvd: 3, 7, 13, 19 ...


Final list of primes
2, 3, 5, 7 ...
999983, 999979, 999961, 999959 ...
[0;36m23:55 [1;30m[[1;34mwebstetw5351[1;30m[0;32m[1;30m][1;37m[0;37m$stop
stop: missing job name
Try `stop --help' for more information.
[0;36m23:55 [1;30m[[1;34mwebstetw5351[1;30m[0;32m[1;30m][1;37m[0;37m$exit
exit

Script done on Tue 27 Oct 2015 11:55:15 PM CDT
